<?xml version="1.0" encoding="iso-8859-1"?>
<!-- Generator: Adobe Illustrator 19.0.0, SVG Export Plug-In . SVG Version: 6.00 Build 0)  -->
<svg xmlns="http://www.w3.org/2000/svg" xmlns:xlink="http://www.w3.org/1999/xlink" version="1.1" id="Layer_1" x="0px" y="0px" viewBox="0 0 511.998 511.998" style="enable-background:new 0 0 511.998 511.998;" xml:space="preserve">
<path style="fill:#F94F79;" d="M428.74,301.212c0,66.531-77.339,120.465-172.743,120.465S83.255,367.743,83.255,301.212  s77.339-92.053,172.743-92.053S428.74,234.681,428.74,301.212z"/>
<path style="fill:#E23C63;" d="M166.89,301.212c0-56.474,55.729-83.395,130.925-90.246c-13.391-1.22-27.396-1.808-41.817-1.808  c-95.403,0-172.743,25.522-172.743,92.053s77.339,120.465,172.743,120.465c14.421,0,28.426-1.24,41.817-3.563  C222.619,405.075,166.89,357.686,166.89,301.212z"/>
<ellipse transform="matrix(0.3468 -0.9379 0.9379 0.3468 -64.8185 152.1617)" style="fill:#F94F79;" cx="76.834" cy="122.617" rx="91.197" ry="65.631"/>
<path style="fill:#E23C63;" d="M58.188,99.851c11.029-29.832,31.73-52.028,54.049-61.176c-1.233-0.58-2.486-1.127-3.778-1.605  C74.463,24.502,32.745,52.61,15.28,99.851c-17.466,47.241-4.064,95.727,29.931,108.295c12.529,4.632,26.104,3.734,39.131-1.605  C53.16,191.875,41.387,145.296,58.188,99.851z"/>
<ellipse transform="matrix(0.3468 0.9379 -0.9379 0.3468 399.2459 -328.0345)" style="fill:#F94F79;" cx="435.132" cy="122.618" rx="91.197" ry="65.631"/>
<path style="fill:#E23C63;" d="M414.663,145.366c-16.955-45.86-4.819-92.888,27.007-107.096  c-12.719-4.981-25.924-5.713-38.133-1.199c-33.996,12.569-47.396,61.054-29.931,108.295c17.466,47.241,59.184,75.349,93.18,62.781  c0.994-0.367,1.966-0.771,2.924-1.199C447.01,198.059,425.856,175.642,414.663,145.366z"/>
<g>
	<path style="fill:#F94F79;" d="M95.182,345.28c0,0-36.247,23.335-46.475,84.701c0,0,23.008-43.453,70.259-55.426"/>
	<path style="fill:#F94F79;" d="M128.928,382.503c0,0-26.159,34.264-14.922,95.453c0,0,6.871-48.686,47.24-76.006"/>
	<path style="fill:#F94F79;" d="M417.206,345.28c0,0,36.247,23.335,46.475,84.701c0,0-23.008-43.453-70.259-55.426"/>
	<path style="fill:#F94F79;" d="M383.46,382.503c0,0,26.159,34.264,14.922,95.453c0,0-6.871-48.686-47.24-76.006"/>
</g>
<g>
	<circle style="fill:#FFD41D;" cx="199.514" cy="157.859" r="22.567"/>
	<circle style="fill:#FFD41D;" cx="312.482" cy="157.859" r="22.567"/>
</g>
<path d="M508.379,169.026c6.074-21.978,4.465-47.481-4.531-71.812c-8.994-24.331-24.363-44.747-43.274-57.488  c-19.681-13.261-40.872-16.738-59.673-9.787c-18.799,6.95-32.633,23.376-38.956,46.252c-6.074,21.978-4.465,47.481,4.531,71.812  c8.994,24.331,24.363,44.747,43.274,57.488c13.055,8.796,26.77,13.286,40.016,13.286c6.724,0,13.327-1.159,19.659-3.499  c1.342-0.496,2.651-1.054,3.943-1.645l4.769,15.083c6.647,21.017-3.508,43.647-23.623,52.639l-18.923,8.465  c-3.828-28.661-22.364-51.493-54.207-66.465c-16.731-7.866-37.431-13.682-61.297-17.321v-18.979  c12.967-3.379,22.568-15.189,22.568-29.2c0-16.636-13.535-30.172-30.172-30.172s-30.172,13.535-30.172,30.172  c0,14.011,9.601,25.82,22.568,29.2v17.002c-15.246-1.656-31.593-2.503-48.878-2.503s-33.633,0.848-48.878,2.503v-17.002  c12.968-3.379,22.568-15.189,22.568-29.2c0-16.636-13.535-30.172-30.172-30.172s-30.171,13.535-30.171,30.172  c0,14.011,9.601,25.82,22.567,29.2v18.979c-23.867,3.639-44.566,9.455-61.296,17.321c-31.842,14.971-50.379,37.802-54.207,66.462  l-18.92-8.463c-20.117-8.993-30.276-31.622-23.631-52.64l4.768-15.085c1.293,0.593,2.603,1.152,3.948,1.648  c6.331,2.341,12.933,3.499,19.659,3.499c13.243,0,26.962-4.491,40.016-13.286c18.91-12.74,34.279-33.157,43.274-57.488  c8.995-24.331,10.603-49.834,4.53-71.813c-6.323-22.875-20.157-39.302-38.956-46.252c-22.24-8.222-48.539-1.442-70.354,18.138  c-3.126,2.805-3.384,7.613-0.58,10.737c2.805,3.126,7.613,3.384,10.737,0.58c7.213-6.473,14.932-11.241,22.693-14.183  c-3.873,19.162-3.228,38.273,1.989,54.917c6.68,21.307,20.206,36.682,38.087,43.293c5.155,1.906,10.508,3.015,16.004,3.349  c-14.072,34.252-41.696,56.797-67.398,56.794c-4.915,0-9.763-0.825-14.428-2.55c-30.01-11.095-41.42-55.294-25.436-98.527  c2.625-7.101,5.893-13.893,9.712-20.188c2.178-3.59,1.034-8.267-2.557-10.444c-3.591-2.179-8.267-1.033-10.444,2.557  c-4.321,7.122-8.013,14.794-10.974,22.802c-8.995,24.331-10.603,49.834-4.53,71.813c4.191,15.164,11.7,27.471,21.752,36.085  l-6.011,19.019c-8.976,28.388,4.748,58.958,31.923,71.105l24.517,10.967c0.678,12.781,3.956,25.21,9.656,36.985  c-11.225,9.556-35.934,35.655-44.248,85.542c-0.612,3.678,1.532,7.259,5.065,8.453c0.803,0.272,1.625,0.401,2.434,0.401  c2.751,0,5.372-1.5,6.72-4.046c0.208-0.392,20.656-38.234,61.578-50.55c0.57,0.487,1.153,0.966,1.734,1.448  c-7.399,13.195-21.212,45.879-12.21,94.894c0.664,3.615,3.816,6.23,7.477,6.23c0.053,0,0.106,0,0.159-0.002  c3.729-0.077,6.85-2.847,7.371-6.539c0.063-0.439,6.41-42.84,40.562-68.345c27.991,12.118,60.256,18.606,93.901,18.606  c33.743,0,66.099-6.526,94.147-18.713c34.11,25.391,40.645,68.023,40.707,68.451c0.522,3.692,3.644,6.462,7.371,6.539  c0.054,0.001,0.105,0.002,0.159,0.002c3.66,0,6.813-2.615,7.477-6.23c9.052-49.287-4.966-82.066-12.334-95.116  c0.523-0.436,1.049-0.871,1.563-1.311c40.922,12.183,61.668,50.253,61.872,50.635c1.347,2.546,3.969,4.046,6.72,4.046  c0.81,0,1.63-0.13,2.434-0.401c3.532-1.194,5.678-4.774,5.065-8.453c-8.385-50.313-33.44-76.422-44.526-85.775  c5.631-11.705,8.869-24.053,9.542-36.749l24.521-10.969c27.173-12.146,40.893-42.715,31.914-71.106l-6.012-19.015  C496.675,196.502,504.187,184.193,508.379,169.026z M297.516,157.856c0-5.474,2.963-10.257,7.361-12.865v12.865  c0,4.199,3.403,7.604,7.604,7.604c4.2,0,7.603-3.404,7.603-7.604v-12.865c4.398,2.61,7.361,7.392,7.361,12.865  c0,8.251-6.713,14.964-14.965,14.964C304.229,172.819,297.516,166.107,297.516,157.856z M184.552,157.856  c0-5.474,2.963-10.257,7.36-12.865v12.865c0,4.199,3.404,7.604,7.604,7.604c4.199,0,7.604-3.404,7.604-7.604V144.99  c4.398,2.61,7.361,7.393,7.361,12.866c0,8.251-6.713,14.964-14.965,14.964C191.265,172.82,184.552,166.107,184.552,157.856z   M90.006,41.763c5.481-0.203,10.811,0.589,15.816,2.439c27.443,10.146,39.317,47.977,28.926,87.435  c-5.496,0.194-10.796-0.628-15.807-2.48C91.836,119.137,79.616,81.344,90.006,41.763z M66.578,395.499  c4.776-11.04,10.153-19.526,14.769-25.642c4.441-5.884,8.639-10.221,11.868-13.195c3.368,4.994,7.21,9.831,11.493,14.491  C88.985,377.25,76.306,386.389,66.578,395.499z M119.116,439.412c1.399-22,7.72-37.553,11.952-45.715  c5.069,3.452,10.374,6.673,15.895,9.65C134.109,414.467,125.213,427.459,119.116,439.412z M98.665,335.511  c19.263-34.301,74.881-53.141,157.333-53.141c17.719,0,34.52,0.901,49.938,2.679c4.169,0.482,7.944-2.511,8.425-6.683  c0.482-4.172-2.511-7.943-6.682-8.425c-15.994-1.844-33.382-2.779-51.681-2.779c-42.317,0-78.264,4.854-106.845,14.426  c-25.281,8.467-44.23,20.497-56.577,35.865c-1.124-5.306-1.717-10.728-1.717-16.243c0-28.109,15.553-49.673,46.226-64.095  c28.324-13.316,69.443-20.355,118.912-20.355s90.588,7.039,118.912,20.355c30.675,14.421,46.227,35.986,46.227,64.095  c0,5.508-0.592,10.924-1.713,16.223c-16.293-20.337-44.005-34.718-82.682-42.842c-4.11-0.861-8.141,1.768-9.005,5.878  s1.768,8.141,5.878,9.005c40.603,8.529,67.389,24.012,79.716,46.035c-21.291,45.514-83.766,78.565-157.334,78.565  C182.432,414.074,119.957,381.024,98.665,335.511z M365.277,403.217c5.553-3.005,10.885-6.257,15.979-9.744  c4.26,8.07,10.714,23.68,12.071,46.05C387.206,427.495,378.253,414.4,365.277,403.217z M445.867,395.553  c-9.793-9.184-22.585-18.405-38.472-24.514c4.311-4.701,8.169-9.581,11.548-14.62C425.702,362.587,437.023,375.06,445.867,395.553z   M406.173,44.203c4.579-1.693,9.392-2.53,14.335-2.53c0.488,0,0.977,0.016,1.467,0.032c10.418,39.602-1.803,77.427-28.921,87.454  c-5.01,1.852-10.312,2.672-15.807,2.48C366.857,92.179,378.731,54.348,406.173,44.203z M464.149,201.014  c-14.088,5.209-30.389,2.318-45.904-8.136c-15.25-10.275-27.897-26.542-35.93-46.109c5.499-0.333,10.855-1.442,16.013-3.349  c17.881-6.611,31.407-21.986,38.086-43.293c5.224-16.664,5.863-35.8,1.975-54.985c4.58,1.749,9.168,4.148,13.688,7.195  c16.288,10.974,29.608,28.785,37.508,50.15C505.568,145.721,494.158,189.92,464.149,201.014z"/>
<g>
</g>
<g>
</g>
<g>
</g>
<g>
</g>
<g>
</g>
<g>
</g>
<g>
</g>
<g>
</g>
<g>
</g>
<g>
</g>
<g>
</g>
<g>
</g>
<g>
</g>
<g>
</g>
<g>
</g>
</svg>
